1 10 20
100 200 125
201 210 89
900 1000 174
34524 45245 324
9999 234234 443
234234 9999 443
1 99999 351
1 999999 525
999999 1 525
34 97653 351
123123 739464 509
13547 289923 443
1 10001 262
1 20001 279
1 30001 308
1 40001 324
1 50001 324
2 999999 525
999999 999999 259
1 1 1
1 2 2
2 1 2
46456 634576 509
9834 345744 443
345744 9834 443
234324 12342 443
234 10000 262
2001 3001 217
3001 4001 238
4001 5001 215
5001 6001 236
10000 10001 180
234914 552044 470
853720 181486 525
211790 965994 525
328724 346980 441
217914 228755 368
791891 140865 509
88965 40405 351
669501 397050 509
561014 258785 470
501348 52983 449
993261 110129 525
499520 766033 509
665724 326785 509
732526 480990 509
878003 262715 525
696938 442663 509
773940 328134 509
113912 808549 509
303645 816314 509
801988 33209 509
376527 477264 449
879334 874305 432
855004 330422 525
865386 247787 525
383534 51608 443
907192 626094 525
165493 940949 525
171588 51232 383
205757 743591 509
389554 155812 443
607080 802125 509
19371 806827 509
946379 294471 525
496994 593617 470
505290 36337 449
722625 926910 525
704138 445105 509
78374 705386 509
836130 320110 509
642083 938447 525
99757 542970 470
624332 722184 509
663839 756326 504
526785 851203 525
121505 2372 354
758568 520637 509
619498 259344 470
713633 106395 509
16290 235288 443
228977 930024 525
521940 168298 470
877868 469439 525
825847 662500 504
574500 327988 470
447777 250977 449
585123 464294 470
116559 828504 509
332335 94300 443
445756 993206 525
555000 826712 509
943503 224096 525
627546 96767 509
978350 771639 525
868807 207366 525
498604 484273 426
54916 125384 354
884332 227009 525
201603 59808 383
989300 280765 525
643728 251775 509
370266 875178 525
468218 390414 449
251083 235915 368
242560 34603 443
502428 659238 509
330396 232510 407
347759 480993 449
370506 315727 441
841347 181582 525
135446 813854 509
234805 382020 441
660526 300634 509
973826 502565 525
737298 764597 424
673952 160422 509
798785 13296 509
762431 216690 509
596438 519295 452
100313 209431 383
130351 512218 470
953268 994334 458
720067 907324 525
546350 243872 470
984766 206208 525
946619 1245 525
843387 137367 525
349298 204084 443
47270 184548 383
221705 130043 386
976824 95351 525
210370 544881 470
69869 63754 312
98343 85728 333
713367 621633 509
113697 475236 449
909699 651267 525
658754 334992 509
559284 508303 470
912998 176102 525
444739 742388 509
671977 592879 509
623796 625942 385
317549 524026 470
154676 946644 525
97863 96375 297
787093 39091 509
109175 569855 470
314437 658857 509
928403 171959 525
287814 279945 376
616847 270952 470
237575 966174 525
378413 362840 423
743266 62766 509
99544 708766 509
693166 399344 509
100923 329608 443
342509 890669 525
886641 356226 525
517605 43392 470
351858 860873 525
478308 702963 509
280633 584218 470
969737 649560 525
917080 708917 525
659624 334089 509
403412 686231 509
401438 100214 443
288180 781066 509
982562 953959 458
792974 92147 509
807921 386734 509
742252 747496 349
762217 56663 509
490532 707482 509
234026 410042 449
859971 774537 525
403808 216182 443
509552 919109 525
118067 138421 344
322940 488284 449
993788 330165 525
896900 550971 525
641557 392778 509
306407 268399 407
898329 35350 525
303289 891130 525
846893 905370 445
245783 58117 443
435500 625883 470
230040 821505 509
284214 868047 525
339579 143685 443
953372 639386 525
28962 271170 443
353716 510160 449
321795 235543 407
159238 41126 383
232954 593398 470
836833 237847 509
239136 659375 509
563377 148637 470
103367 714141 509
358960 673191 509
781309 15534 509
514267 588483 452
387681 292197 441
218890 732120 509
995917 779947 525
790528 960219 525
353968 264101 441
420602 118978 449
335058 26328 443
829884 54552 509
13320 977024 525
417473 363884 449
324161 564791 470
933799 998570 507
846590 184197 525
160852 335889 443
119880 16411 354
440708 684734 509
882662 908241 445
938835 479668 525
191187 112345 383
982106 961201 458
655310 271364 509
407507 49304 443
492584 790954 509
212418 539082 470
