1 1 1
2 2 2
4 4 3
3 3 8
2 4 8
4 2 8
1 2 2
2 1 2
1 4 8
4 1 8
16 16 5
8 8 4
100 200 125
100 199 125
101 200 125
101 199 125
200 100 125
199 100 125
200 101 125
199 101 125
1000 4000 238
1001 4000 238
1000 3999 238
1001 3999 238
4000 1000 238
4000 1001 238
3999 1000 238
3999 1001 238
2500 5000 238
2499 5000 238
2501 5000 238
5000 2500 238
5000 2499 238
5000 2501 238
999999 999999 259
1 999999 525
2 999999 525
1 999998 525
2 999998 525
999999 1 525
999999 2 525
999998 1 525
999998 2 525
837924 345009 525
353208 43921 443
197803 240493 443
241001 276899 407
212398 964839 525
853548 322076 525
932244 333797 525
318288 679786 509
501996 127428 449
890012 898571 370
254103 849453 525
838932 514696 525
949888 541662 525
855640 507868 525
439566 108935 449
833616 567114 509
47334 286394 443
992205 15416 525
698081 267999 509
365029 945775 525
52031 123373 354
976046 452955 525
769474 787859 437
130845 632456 509
889848 472736 525
446270 130814 449
608646 505774 470
51507 411808 449
63674 607382 470
106 759766 509
321539 856252 525
935211 984036 507
594660 457343 470
367253 180601 443
742654 121028 509
560584 777083 509
110604 612871 470
419054 974893 525
661061 856838 525
821295 573336 509
695755 632543 442
524905 335087 470
768175 16693 509
683261 741454 504
872304 112522 525
415199 381140 449
104022 594893 470
909546 557202 525
199617 64655 383
966985 178813 525
621110 997988 525
44800 722643 509
347917 575714 470
778663 834965 468
720471 246022 509
211731 607881 470
694215 236678 509
875141 994815 507
249175 926778 525
30323 59435 340
184859 711499 509
73872 261161 443
198548 128884 383
130925 820977 509
924849 910127 445
322985 592670 470
201535 666211 509
211090 635884 509
773347 662205 504
882332 828705 525
963720 795270 525
781261 439155 509
628621 648423 416
309710 152579 443
196264 573539 470
239261 498152 449
71799 786826 509
20037 859782 525
431797 396772 449
911903 697676 525
187344 171716 365
273764 655548 509
398632 21965 443
383368 957574 525
817167 289032 509
364265 606205 470
694798 637293 442
261522 357573 441
371337 141125 443
746261 345724 509
723048 63681 509
786282 513641 509
388272 836174 509
33425 670077 509
736902 409383 509
900338 24657 525
291123 259456 407
342735 177494 443
256504 621226 470
648009 768696 504
134045 89370 354
213110 793011 509
453483 69955 449
984489 576440 525
91636 344156 443
41566 144727 375
704452 14325 509
322341 332780 384
453147 444289 387
589453 53058 470
328120 917980 525
500565 193987 449
965534 403232 525
359468 585737 470
600912 66908 470
226251 208695 386
732853 144170 509
534025 742386 509
686507 10231 509
143827 965499 525
687383 197423 509
127344 697851 509
524106 444958 470
159960 259476 443
712008 55199 509
651648 103338 509
424227 846957 525
851186 385110 525
547388 46580 470
170048 467841 449
899756 177272 525
143741 314039 443
496692 562166 470
572610 322487 470
46820 333783 443
444455 523876 470
489370 999549 525
870154 639274 525
839065 438357 525
265431 575757 470
770893 585638 509
45343 954855 525
468229 77909 449
118765 653911 509
897269 879031 445
142355 924758 525
245808 978190 525
754732 372919 509
827980 991109 525
326209 509389 449
605306 979836 525
23795 108883 354
318395 948860 525
949025 159380 525
440895 506405 444
23861 225181 386
652685 583815 509
433689 886182 525
202083 187031 360
497347 756117 509
850775 516742 525
196959 910650 525
310274 192296 443
548840 737664 509
338239 317676 384
192911 757495 509
819127 83697 509
576580 321659 470
605219 767803 509
287423 456039 449
415864 596402 470
809011 791612 468
677481 284367 509
706479 63077 509
698109 608745 509
664086 460678 509
734102 313852 509
654674 382239 509
33286 833398 509
5100 965628 525
105144 726988 509
64199 478437 449
792293 411902 509
466477 285712 449
840364 756507 525
310085 240354 407
461039 942132 525
696413 677023 442
206322 823770 509
134524 183995 383
42554 776032 509
339099 90846 443
271845 44653 443
103089 599420 470
919948 471268 525
684206 160838 509
51075 937957 525
274709 207975 443
23773 102467 351
