1 999999 525
442954 589464 470
302700 386616 441
32706 154269 375
955455 38953 525
275884 514243 470
246766 492255 449
266017 953723 525
682286 88239 509
827658 212803 509
800187 603962 509
37065 728163 509
754517 668002 504
41493 682625 509
512850 686331 509
376385 896237 525
454887 786442 509
727794 894688 525
36960 784011 509
492539 302222 449
734391 903624 525
734932 565548 509
917481 823799 525
339306 586924 470
857862 162772 525
258780 608691 470
252841 312318 407
707766 711315 380
563155 650124 509
72445 172903 383
620770 220035 470
480779 734407 509
697418 427422 509
403379 272976 441
926037 194764 525
304875 595184 470
563332 417504 470
967210 234170 525
588686 659540 509
387300 200074 443
991052 24835 525
224363 771971 509
752434 729812 424
138055 808106 509
304653 819872 509
955108 706180 525
662278 215866 509
373442 176126 443
875149 825355 525
643038 137790 509
458823 72545 449
284498 159912 443
965513 531442 525
374868 101273 443
225548 457118 449
818300 147638 509
589685 731368 509
154751 486363 449
19309 901097 525
551247 37543 470
660942 352525 509
668034 139761 509
658334 74559 509
293055 570608 470
779907 976992 525
369690 574779 470
224441 157009 386
41869 289610 443
700016 383208 509
422380 237731 449
893364 927774 476
328582 365268 441
654121 318717 509
865139 498976 525
770419 934723 525
637992 451777 509
375438 15453 443
787814 68628 509
347090 951541 525
253850 94213 443
254359 562480 470
660492 316271 509
276951 304374 389
319741 140064 443
684969 992673 525
815493 747725 468
417498 764711 509
670890 807492 504
313762 440685 449
977335 560717 525
947236 40312 525
260225 338375 407
473382 654373 509
644745 443951 509
442951 861842 525
369398 787792 509
17081 339753 443
629403 843324 525
689583 604310 509
100275 751623 509
393762 489292 449
717818 213776 509
85276 15710 351
113151 172297 383
900743 632931 525
984005 898573 507
277503 958960 525
79812 686585 509
916740 502726 525
616346 116417 470
615500 922392 525
324953 98560 443
156330 712837 509
633206 55662 509
320168 423987 449
263679 911318 525
286850 626581 509
374916 727613 509
859274 492257 525
869734 954157 507
425847 508058 444
728568 773020 468
473840 257352 449
866090 470420 525
35591 429738 449
897373 809668 525
382959 952285 525
286683 987240 525
949525 430512 525
846632 526145 525
675517 540725 509
464204 89445 449
324461 706876 509
941819 902774 507
302079 911977 525
561903 144153 470
44341 655965 509
301211 265839 407
356315 689913 509
797916 980185 525
667058 320180 509
965582 659004 525
117207 73056 354
695996 199163 509
200186 942838 525
176729 248652 443
915147 397094 525
706480 689285 504
380751 235934 441
346297 866783 525
243338 713000 509
915224 855530 476
160376 702134 509
99028 909724 525
606459 451089 470
6777 787626 509
574121 182969 470
524485 732942 509
13201 255542 443
732483 320995 509
748518 676395 504
719625 8779 509
972442 355031 525
777184 438106 509
865470 532306 525
962375 85838 525
158739 777426 509
185407 611213 470
810406 695920 504
177001 82951 383
11821 600469 470
452235 328865 449
728875 689263 504
439808 310718 449
918004 186752 525
852660 338077 525
882577 622360 525
727752 141215 509
385132 526963 470
758115 937828 525
250616 638218 509
863427 364689 525
31687 973475 525
975144 160759 525
778689 681426 504
179802 441963 449
415328 669753 509
132098 755849 509
850783 648649 525
681761 989322 525
199725 290939 443
213318 395258 443
783594 378587 509
494910 871840 525
889743 735084 525
961436 315865 525
498276 949574 525
828434 961797 525
911845 646876 525
59808 511698 449
451467 878482 525
143689 571382 470
242320 556125 470
9544 480982 449
524952 946978 525
907003 445585 525
935249 738866 525
113643 364347 443
653727 564896 509
452063 523970 470
442313 849509 525
314072 707718 509
702986 466806 509
413928 727575 509
930048 646443 525
954359 361738 525
859914 718328 525
502923 73982 449
315497 338631 384
932058 470637 525
128881 761738 509
375227 681141 509
153414 650712 509
791714 689441 504
787692 104045 509
464761 369497 449
745552 957187 525
454416 349507 449
872950 384397 525
761148 24747 509
214156 378118 443
126857 610210 470
826223 213059 509
877543 565246 525
975599 541223 525
548981 110776 470
214898 915853 525
951976 152166 525
198619 541309 470
255952 834552 509
727794 665566 504
471225 255661 449
973796 924587 507
618157 892669 525
695564 724116 504
143067 86563 375
413525 258747 449
750267 352357 509
245166 662541 509
821518 945739 525
